#Missing Period

Schemes:
  kwan(K, W, A,  a1324)

#|comment

|#

  AnoBaIyan(X,Y,e,e3)



Facts: #comment
  snosfdp('12345','C. Brown','12 Apple','555-1234').
  snaasdfasdp('33333','Snoopy','12 Apple','555-1234').
  snaasdfasdp('33333','Snoopy','12 Apple','555-1234').
  snaasdp('33f43wefgth33','Snsfdg?y','12 Apple','555-1234')

Rules:
  Ha43t43fs(X,Y,dadsf, ef) :- snap(q23,d4,ggg,B,C),kwan(D,w2ff2,B,E).

#comment

Queries: Address('y',a123457890)?